[gd_scene load_steps=3 format=2]

[ext_resource path="res://scripts/BloodSpray.gd" type="Script" id=1]

[sub_resource type="ParticlesMaterial" id=1]
emission_shape = 1
emission_sphere_radius = 2.0
flag_disable_z = true
direction = Vector3( -1, 0, 0 )
gravity = Vector3( 0, 98, 0 )
initial_velocity = 200.0
initial_velocity_random = 0.5
orbit_velocity = 0.0
orbit_velocity_random = 0.0
linear_accel = 100.0
linear_accel_random = 0.5
scale_random = 0.8
color = Color( 0.870588, 0.141176, 0.141176, 1 )

[node name="BloodSpray" type="Node2D"]
script = ExtResource( 1 )

[node name="Particles2D" type="Particles2D" parent="."]
amount = 200
explosiveness = 1.0
process_material = SubResource( 1 )
