[gd_scene load_steps=4 format=2]

[ext_resource path="res://assets/Fonts/prstart.ttf" type="DynamicFontData" id=1]
[ext_resource path="res://scripts/GameOverDialog.gd" type="Script" id=2]

[sub_resource type="DynamicFont" id=1]
size = 42
font_data = ExtResource( 1 )

[node name="GameOverDialog" type="Control"]
anchor_left = 0.191
anchor_top = 0.075
anchor_right = 0.191
anchor_bottom = 0.075
margin_left = -392.125
margin_top = -85.2368
margin_right = -0.125168
margin_bottom = 4.76321
script = ExtResource( 2 )
__meta__ = {
"_edit_group_": true,
"_edit_use_anchors_": false
}

[node name="VBoxContainer" type="VBoxContainer" parent="."]
margin_left = 8.0
margin_top = 8.0
margin_right = 386.0
margin_bottom = 51.0
__meta__ = {
"_edit_use_anchors_": false
}

[node name="Label" type="Label" parent="VBoxContainer"]
margin_right = 378.0
margin_bottom = 43.0
custom_fonts/font = SubResource( 1 )
custom_colors/font_color = Color( 0.243137, 0.0980392, 0.0980392, 1 )
text = "YOU LOSE!"
align = 1
